pom/core/servlets/DemoStoreServlet.class
pom/core/servlets/SimpleServlet.class
pom/core/package-info.class
pom/core/models/StoreModel.class
pom/core/listeners/SimpleResourceListener.class
pom/core/servlets/DemoProductServlet$1.class
pom/core/schedulers/SimpleScheduledTask.class
pom/core/models/HelloWorldModel.class
pom/core/servlets/DemoProductServlet.class
pom/core/models/ProductModel.class
pom/core/filters/LoggingFilter.class
